Data Preparation
…
filter()

Extract rows that meet logical condition

filter(homes, YearBuilt == 2016)

## # A tibble: 317 x 12
##   YearBuilt YearRemodeled Condition NumStories FinSqFt Bedroom FullBath
##       <dbl>         <dbl> <chr>          <dbl>   <dbl>   <dbl>    <dbl>
## 1      2016             0 Good             1.6    2842       3        2
## 2      2016             0 Average          2.5    2271       3        3
## 3      2016             0 Average          2.5    1880       3        2
## 4      2016             0 Good             2      2496       4        3
## 5      2016             0 Good             2      1805       3        2
## # … with 312 more rows, and 5 more variables: HalfBath <dbl>,
## #   TotalRooms <dbl>, LotSize <dbl>, TotalValue <dbl>, City <chr>
…
x <- y: less than or equal to

y >= y: greater than or equal to

x != y: not equal to

x %in% y: is a member of

is.na(x): is NA

!is.na(x): is not NA

filter(homes, YearRemodeled > 0)

## # A tibble: 1,727 x 12
##   YearBuilt YearRemodeled Condition NumStories FinSqFt Bedroom FullBath
##       <dbl>         <dbl> <chr>          <dbl>   <dbl>   <dbl>    <dbl>
## 1      1975          1982 Average         1       1520       3        1
## 2      1940          1987 Fair            1.52     812       2        0
## 3      1978          2007 Average         1.33    2399       3        2
## 4      1903          2000 Good            1.83    4496       5        3
## 5      1801          1984 Average         1.75    1050       2        2
## # … with 1,722 more rows, and 5 more variables: HalfBath <dbl>,
## #   TotalRooms <dbl>, LotSize <dbl>, TotalValue <dbl>, City <chr>

filter(homes, Bedroom == max(Bedroom))

## # A tibble: 1 x 12
##   YearBuilt YearRemodeled Condition NumStories FinSqFt Bedroom FullBath
##       <dbl>         <dbl> <chr>          <dbl>   <dbl>   <dbl>    <dbl>
## 1      1969             0 Average            1    1680      16        8
## # … with 5 more variables: HalfBath <dbl>, TotalRooms <dbl>,
## #   LotSize <dbl>, TotalValue <dbl>, City <chr>

filter(homes, City %in% c("SCOTTSVILLE", "CROZET"))

## # A tibble: 3,884 x 12
##   YearBuilt YearRemodeled Condition NumStories FinSqFt Bedroom FullBath
##       <dbl>         <dbl> <chr>          <dbl>   <dbl>   <dbl>    <dbl>
## 1      2006             0 Average         1       1922       3        3
## 2      2003             0 Average         1       1848       3        2
## 3      1998             0 Good            1       1244       1        1
## 4      1886             0 Average         1.86    1861       4        1
## 5      1910             0 Fair            1.53    1108       3        1
## # … with 3,879 more rows, and 5 more variables: HalfBath <dbl>,
## #   TotalRooms <dbl>, LotSize <dbl>, TotalValue <dbl>, City <chr>

Boolean operators for multiple conditions

a & b: and

a | b: or

xor(a,b): exactly or

!a: not

filter(homes, City == "SCOTTSVILLE" & FinSqFt > mean(FinSqFt))

## # A tibble: 224 x 12
##   YearBuilt YearRemodeled Condition NumStories FinSqFt Bedroom FullBath
##       <dbl>         <dbl> <chr>          <dbl>   <dbl>   <dbl>    <dbl>
## 1      1995             0 Average         2       3326       3        3
## 2      2004             0 Average         1       2250       4        2
## 3      1998             0 Good            2.15    2287       3        2
## 4      2007             0 Good            1.93    4566       4        5
## 5      1993             0 Average         1.48    2584       3        3
## # … with 219 more rows, and 5 more variables: HalfBath <dbl>,
## #   TotalRooms <dbl>, LotSize <dbl>, TotalValue <dbl>, City <chr>
…
\(\color{green}{\text{sample_n()/sample_frac()}}\) - randomly sample \(\color{green}{\text{rows}}\)

Pipes!

The %>% is the pipe operator. It passes the result on left into the first argument of the function on the right, or “pipes” the previous output as the input for the next function. Read it in your head as then

For example, if we just want the TotalValue and LotSize for homes in Scottsville arranged in descending order of LotSize, without the pipe, we’d:

scottsville <- filter(homes, City == "SCOTTSVILLE")
scottsville <- select(scottsville, TotalValue, LotSize)
scottsville <- arrange(scottsville, desc(LotSize))
scottsville

## # A tibble: 975 x 2
##   TotalValue LotSize
##        <dbl>   <dbl>
## 1    2156700    612.
## 2    2665700    511.
## 3    2352200    365.
## 4     892300    294.
## 5    3165200    282.
## # … with 970 more rows

With the pipe, we can start with homes, then filter only the rows for Scottsville, then select only the variables TotalValue and LotSize, then arrange the rows by descending order of LotSize.

homes %>% 
  filter(City == "SCOTTSVILLE") %>% 
  select(TotalValue, LotSize) %>% 
  arrange(desc(LotSize))

## # A tibble: 975 x 2
##   TotalValue LotSize
##        <dbl>   <dbl>
## 1    2156700    612.
## 2    2665700    511.
## 3    2352200    365.
## 4     892300    294.
## 5    3165200    282.
## # … with 970 more rows
…
